<svg xmlns="http://www.w3.org/2000/svg" xmlns:android="http://schemas.android.com/apk/res/android" width="102dp" height="86dp" viewportWidth="102" viewportHeight="86">
	<path d="M55.556,6.39C55.555,6.69 55.436,6.978 55.224,7.19C55.012,7.403 54.724,7.523 54.424,7.525H30.161C29.86,7.523 29.573,7.403 29.361,7.19C29.149,6.978 29.029,6.69 29.028,6.39C29.029,6.09 29.148,5.801 29.36,5.588C29.572,5.375 29.86,5.255 30.161,5.253H31.308C31.501,4.809 31.799,4.419 32.177,4.117C32.555,3.815 33.001,3.611 33.476,3.521C33.952,3.432 34.442,3.46 34.903,3.603C35.365,3.747 35.785,4.002 36.126,4.345C36.592,3.55 37.313,2.935 38.172,2.599C39.031,2.264 39.978,2.228 40.86,2.497C41.3,1.666 41.979,0.987 42.81,0.547C43.64,0.107 44.584,-0.074 45.518,0.028C46.452,0.13 47.334,0.51 48.05,1.119C48.766,1.728 49.283,2.538 49.534,3.444C49.922,3.25 50.347,3.144 50.78,3.132C51.213,3.121 51.644,3.205 52.041,3.379C52.438,3.552 52.792,3.811 53.078,4.136C53.365,4.461 53.576,4.846 53.697,5.262H54.429C54.727,5.264 55.013,5.384 55.224,5.595C55.435,5.806 55.554,6.092 55.556,6.39Z" fill="#CAE6FE"/>
	<path d="M84.257,11.225C84.255,11.446 84.166,11.657 84.01,11.813C83.854,11.969 83.643,12.058 83.422,12.06H65.579C65.413,12.061 65.251,12.013 65.113,11.922C64.975,11.83 64.866,11.7 64.802,11.547C64.738,11.394 64.721,11.226 64.753,11.063C64.785,10.901 64.865,10.751 64.982,10.634C65.059,10.556 65.151,10.495 65.252,10.453C65.353,10.411 65.461,10.389 65.57,10.389H66.414C66.554,10.063 66.773,9.775 67.05,9.552C67.328,9.329 67.655,9.178 68.005,9.112C68.354,9.045 68.715,9.065 69.054,9.17C69.394,9.276 69.703,9.463 69.954,9.715C70.299,9.132 70.828,8.681 71.459,8.434C72.09,8.187 72.785,8.159 73.434,8.353C73.757,7.74 74.257,7.238 74.869,6.912C75.481,6.587 76.177,6.453 76.866,6.528C77.555,6.604 78.205,6.885 78.733,7.335C79.26,7.785 79.64,8.383 79.822,9.052C80.107,8.909 80.42,8.83 80.739,8.821C81.058,8.813 81.375,8.874 81.667,9.002C81.959,9.13 82.22,9.32 82.43,9.56C82.641,9.8 82.796,10.083 82.884,10.389H83.422C83.643,10.39 83.855,10.478 84.011,10.635C84.168,10.791 84.256,11.003 84.257,11.225Z" fill="#CAE6FE"/>
	<path d="M96.533,45.313C96.226,45.371 95.929,45.472 95.652,45.614L94.724,44.585L93.618,45.612L94.499,46.597C94.297,46.866 94.135,47.162 94.019,47.479L92.477,47.397L92.398,48.911L93.826,48.986C93.865,49.415 93.985,49.833 94.18,50.217L93.143,51.121L94.158,52.247L95.143,51.366C95.457,51.606 95.813,51.789 96.191,51.905L96.123,53.19L97.638,53.269L97.702,52.029C98.156,51.961 98.591,51.804 98.982,51.566L99.863,52.551L100.989,51.535L100.064,50.506C100.232,50.247 100.363,49.966 100.454,49.671L101.916,49.748L101.996,48.232L100.577,48.16C100.51,47.706 100.352,47.271 100.114,46.879L101.099,45.998L100.084,44.872L99.055,45.797C98.745,45.595 98.403,45.446 98.044,45.357L98.119,43.938L96.605,43.858L96.533,45.313ZM98.244,47.721C98.428,47.925 98.548,48.179 98.588,48.452C98.627,48.724 98.586,49.001 98.467,49.25C98.349,49.498 98.16,49.706 97.924,49.847C97.688,49.987 97.415,50.055 97.141,50.041C96.866,50.027 96.602,49.931 96.381,49.767C96.161,49.603 95.994,49.376 95.902,49.117C95.81,48.858 95.797,48.577 95.865,48.311C95.932,48.044 96.077,47.804 96.282,47.62C96.556,47.373 96.916,47.246 97.284,47.265C97.652,47.284 97.997,47.448 98.244,47.721Z" fill="#CAE6FE"/>
	<path d="M10.501,20.259C10.194,20.318 9.898,20.42 9.62,20.561L8.692,19.532L7.578,20.548L8.459,21.532C8.254,21.8 8.092,22.097 7.976,22.414L6.434,22.332L6.355,23.846L7.782,23.921C7.827,24.348 7.952,24.763 8.15,25.144L7.122,26.072L8.137,27.198L9.122,26.316C9.437,26.557 9.792,26.74 10.17,26.856L10.102,28.141L11.618,28.22L11.681,26.979C12.135,26.912 12.57,26.755 12.961,26.517L13.842,27.502L14.968,26.486L14.043,25.457C14.211,25.198 14.342,24.917 14.433,24.622L15.895,24.699L15.975,23.185L14.556,23.11C14.492,22.652 14.336,22.211 14.098,21.815L15.083,20.933L14.067,19.807L13.04,20.733C12.729,20.531 12.387,20.382 12.027,20.292L12.102,18.873L10.573,18.796L10.501,20.259ZM12.208,22.667C12.392,22.872 12.512,23.126 12.551,23.398C12.591,23.67 12.549,23.948 12.431,24.196C12.313,24.444 12.124,24.652 11.887,24.793C11.651,24.934 11.379,25.001 11.104,24.987C10.83,24.973 10.565,24.878 10.345,24.713C10.125,24.549 9.958,24.323 9.866,24.064C9.774,23.805 9.761,23.524 9.828,23.257C9.896,22.991 10.041,22.75 10.245,22.566C10.519,22.32 10.88,22.192 11.247,22.211C11.615,22.23 11.961,22.394 12.208,22.667Z" fill="#CAE6FE"/>
	<path d="M94.903,37.34C94.737,37.374 94.577,37.429 94.427,37.506L93.92,36.944L93.306,37.499L93.79,38.037C93.679,38.182 93.59,38.343 93.526,38.515L92.68,38.471L92.638,39.297L93.418,39.339C93.44,39.573 93.506,39.801 93.612,40.011L93.05,40.518L93.605,41.135L94.143,40.65C94.315,40.781 94.509,40.88 94.715,40.943L94.678,41.646L95.506,41.688L95.541,41.011C95.788,40.977 96.026,40.893 96.24,40.764L96.724,41.302L97.341,40.747L96.835,40.185C96.928,40.044 97.002,39.89 97.055,39.729L97.854,39.771L97.896,38.942L97.121,38.903C97.085,38.655 96.999,38.418 96.87,38.204L97.407,37.719L96.852,37.105L96.29,37.609C96.12,37.5 95.933,37.418 95.738,37.367L95.777,36.591L94.951,36.549L94.903,37.34ZM95.834,38.662C95.936,38.774 96.001,38.913 96.023,39.062C96.045,39.211 96.023,39.363 95.958,39.499C95.894,39.635 95.79,39.749 95.661,39.826C95.532,39.903 95.383,39.94 95.232,39.932C95.082,39.925 94.938,39.872 94.817,39.782C94.696,39.692 94.605,39.569 94.555,39.427C94.505,39.285 94.498,39.131 94.535,38.985C94.572,38.839 94.652,38.708 94.764,38.607C94.913,38.473 95.109,38.402 95.31,38.412C95.51,38.421 95.699,38.51 95.834,38.658V38.662Z" fill="#CAE6FE"/>
	<path d="M4.747,30.221C4.581,30.253 4.421,30.309 4.271,30.386L3.765,29.824L3.15,30.377L3.635,30.915C3.524,31.06 3.435,31.221 3.372,31.393L2.527,31.349L2.483,32.178L3.262,32.217C3.285,32.448 3.351,32.672 3.456,32.878L2.894,33.385L3.45,34.002L3.987,33.517C4.16,33.647 4.354,33.747 4.56,33.813L4.525,34.513L5.351,34.555L5.386,33.879C5.634,33.842 5.872,33.756 6.086,33.625L6.569,34.163L7.185,33.61L6.679,33.052C6.773,32.91 6.847,32.756 6.899,32.594L7.699,32.636L7.741,31.81L6.965,31.768C6.927,31.52 6.839,31.282 6.707,31.069L7.245,30.584L6.69,29.968L6.128,30.472C5.958,30.363 5.771,30.281 5.575,30.23L5.617,29.454L4.789,29.412L4.747,30.221ZM5.681,31.543C5.782,31.654 5.847,31.794 5.869,31.942C5.891,32.091 5.868,32.243 5.803,32.379C5.739,32.515 5.636,32.628 5.506,32.705C5.377,32.782 5.228,32.819 5.078,32.812C4.928,32.804 4.783,32.752 4.663,32.662C4.542,32.572 4.451,32.449 4.401,32.307C4.351,32.165 4.343,32.012 4.38,31.866C4.417,31.72 4.497,31.588 4.608,31.488C4.757,31.352 4.954,31.281 5.155,31.29C5.356,31.299 5.545,31.388 5.681,31.536V31.543Z" fill="#CAE6FE"/>
	<path d="M48.325,85.998C75.014,85.998 96.649,84.394 96.649,82.415C96.649,80.436 75.014,78.832 48.325,78.832C21.636,78.832 0,80.436 0,82.415C0,84.394 21.636,85.998 48.325,85.998Z" fill="#CAE6FE"/>
	<path d="M95.178,28.412C95.436,28.412 95.688,28.488 95.902,28.632C96.117,28.775 96.284,28.979 96.383,29.217C96.481,29.455 96.507,29.718 96.457,29.971C96.407,30.224 96.282,30.456 96.1,30.639C95.918,30.821 95.685,30.945 95.432,30.996C95.179,31.046 94.917,31.02 94.679,30.921C94.441,30.823 94.237,30.656 94.094,30.441C93.95,30.226 93.874,29.974 93.874,29.716C93.874,29.371 94.012,29.039 94.257,28.795C94.501,28.55 94.832,28.412 95.178,28.412ZM95.178,30.615C95.355,30.616 95.529,30.563 95.677,30.465C95.825,30.367 95.94,30.227 96.008,30.063C96.076,29.899 96.094,29.718 96.06,29.544C96.025,29.37 95.94,29.21 95.814,29.084C95.689,28.959 95.529,28.873 95.354,28.839C95.18,28.804 95,28.822 94.836,28.89C94.672,28.958 94.532,29.074 94.434,29.222C94.335,29.369 94.283,29.543 94.284,29.721C94.285,29.957 94.38,30.184 94.547,30.35C94.715,30.517 94.941,30.611 95.178,30.611V30.615Z" fill="#61B3FF"/>
	<path d="M89.433,24.602C89.691,24.602 89.943,24.678 90.158,24.822C90.372,24.965 90.539,25.169 90.638,25.407C90.737,25.646 90.762,25.908 90.712,26.161C90.662,26.414 90.538,26.646 90.355,26.829C90.173,27.011 89.94,27.135 89.688,27.186C89.435,27.236 89.172,27.21 88.934,27.112C88.696,27.013 88.492,26.846 88.349,26.631C88.205,26.417 88.129,26.164 88.129,25.906C88.13,25.561 88.267,25.229 88.512,24.985C88.756,24.74 89.087,24.603 89.433,24.602ZM89.433,26.806C89.61,26.806 89.783,26.753 89.93,26.655C90.077,26.556 90.192,26.417 90.259,26.253C90.327,26.09 90.345,25.91 90.31,25.736C90.276,25.563 90.191,25.403 90.065,25.278C89.94,25.153 89.781,25.068 89.608,25.033C89.434,24.999 89.254,25.017 89.091,25.084C88.927,25.152 88.788,25.267 88.689,25.414C88.591,25.561 88.539,25.734 88.539,25.911C88.54,26.147 88.635,26.374 88.802,26.541C88.97,26.707 89.197,26.801 89.433,26.801V26.806Z" fill="#007CE6"/>
	<path d="M88.858,20.984C88.912,20.984 88.964,21.006 89.002,21.045C89.04,21.083 89.061,21.135 89.061,21.189V22.09C89.064,22.118 89.061,22.147 89.052,22.175C89.043,22.202 89.029,22.227 89.009,22.248C88.99,22.27 88.967,22.287 88.94,22.298C88.914,22.31 88.886,22.316 88.857,22.316C88.828,22.316 88.8,22.31 88.774,22.298C88.748,22.287 88.724,22.27 88.705,22.248C88.686,22.227 88.671,22.202 88.662,22.175C88.653,22.147 88.65,22.118 88.653,22.09V21.189C88.653,21.134 88.675,21.082 88.713,21.044C88.752,21.005 88.804,20.984 88.858,20.984Z" fill="#61B3FF"/>
	<path d="M88.858,19.404C88.912,19.404 88.964,19.426 89.002,19.465C89.04,19.503 89.061,19.555 89.061,19.609V20.512C89.064,20.541 89.061,20.57 89.052,20.597C89.043,20.624 89.029,20.649 89.009,20.671C88.99,20.692 88.967,20.709 88.94,20.721C88.914,20.732 88.886,20.738 88.857,20.738C88.828,20.738 88.8,20.732 88.774,20.721C88.748,20.709 88.724,20.692 88.705,20.671C88.686,20.649 88.671,20.624 88.662,20.597C88.653,20.57 88.65,20.541 88.653,20.512V19.611C88.653,19.584 88.658,19.557 88.668,19.532C88.678,19.507 88.693,19.484 88.713,19.465C88.732,19.445 88.754,19.43 88.779,19.42C88.804,19.409 88.831,19.404 88.858,19.404Z" fill="#61B3FF"/>
	<path d="M87.592,20.645H88.402C88.456,20.645 88.509,20.666 88.547,20.705C88.586,20.743 88.607,20.795 88.607,20.849C88.607,20.904 88.586,20.956 88.547,20.994C88.509,21.033 88.456,21.054 88.402,21.054H87.592C87.537,21.054 87.485,21.033 87.447,20.994C87.408,20.956 87.387,20.904 87.387,20.849C87.387,20.795 87.408,20.743 87.447,20.705C87.485,20.666 87.537,20.645 87.592,20.645Z" fill="#61B3FF"/>
	<path d="M89.314,20.645H90.123C90.177,20.645 90.229,20.666 90.267,20.705C90.306,20.743 90.327,20.795 90.327,20.849C90.327,20.904 90.306,20.956 90.267,20.994C90.229,21.033 90.177,21.054 90.123,21.054H89.314C89.26,21.054 89.208,21.033 89.169,20.994C89.131,20.956 89.109,20.904 89.109,20.849C89.109,20.795 89.131,20.743 89.169,20.705C89.208,20.666 89.26,20.645 89.314,20.645Z" fill="#61B3FF"/>
	<path d="M95.92,24.39C95.947,24.39 95.974,24.395 95.999,24.405C96.024,24.416 96.047,24.431 96.066,24.45C96.085,24.469 96.1,24.492 96.11,24.517C96.12,24.542 96.126,24.568 96.125,24.595V25.497C96.125,25.551 96.104,25.603 96.065,25.642C96.027,25.68 95.975,25.701 95.92,25.701C95.866,25.701 95.814,25.68 95.775,25.642C95.737,25.603 95.715,25.551 95.715,25.497V24.595C95.715,24.541 95.737,24.489 95.775,24.45C95.814,24.412 95.866,24.39 95.92,24.39Z" fill="#61B3FF"/>
	<path d="M95.92,22.81C95.975,22.81 96.027,22.832 96.065,22.871C96.104,22.909 96.125,22.961 96.125,23.015V23.919C96.125,23.973 96.104,24.025 96.065,24.064C96.027,24.102 95.975,24.124 95.92,24.124C95.866,24.124 95.814,24.102 95.775,24.064C95.737,24.025 95.715,23.973 95.715,23.919V23.015C95.715,22.961 95.737,22.909 95.775,22.871C95.814,22.832 95.866,22.81 95.92,22.81Z" fill="#61B3FF"/>
	<path d="M94.656,24.051H95.464C95.519,24.051 95.571,24.073 95.609,24.111C95.648,24.149 95.669,24.202 95.669,24.256C95.669,24.31 95.648,24.362 95.609,24.401C95.571,24.439 95.519,24.461 95.464,24.461H94.656C94.602,24.461 94.549,24.439 94.511,24.401C94.473,24.362 94.451,24.31 94.451,24.256C94.451,24.202 94.473,24.149 94.511,24.111C94.549,24.073 94.602,24.051 94.656,24.051Z" fill="#61B3FF"/>
	<path d="M96.376,24.051H97.187C97.241,24.051 97.293,24.073 97.332,24.111C97.37,24.149 97.392,24.202 97.392,24.256C97.392,24.31 97.37,24.362 97.332,24.401C97.293,24.439 97.241,24.461 97.187,24.461H96.376C96.322,24.461 96.27,24.439 96.231,24.401C96.193,24.362 96.171,24.31 96.171,24.256C96.171,24.202 96.193,24.149 96.231,24.111C96.27,24.073 96.322,24.051 96.376,24.051Z" fill="#61B3FF"/>
	<path d="M17.622,10.471C17.365,10.467 17.115,10.388 16.903,10.243C16.691,10.097 16.526,9.892 16.43,9.654C16.334,9.415 16.311,9.153 16.363,8.901C16.415,8.65 16.541,8.419 16.724,8.238C16.907,8.057 17.139,7.935 17.392,7.886C17.644,7.837 17.906,7.864 18.143,7.963C18.38,8.062 18.583,8.23 18.725,8.444C18.868,8.658 18.944,8.909 18.944,9.167C18.944,9.339 18.909,9.51 18.843,9.669C18.776,9.829 18.678,9.973 18.555,10.094C18.432,10.216 18.287,10.312 18.126,10.376C17.966,10.441 17.795,10.473 17.622,10.471ZM17.622,10.061C17.8,10.064 17.975,10.014 18.125,9.917C18.274,9.821 18.392,9.682 18.462,9.518C18.532,9.354 18.552,9.173 18.519,8.998C18.486,8.823 18.401,8.662 18.276,8.535C18.151,8.408 17.992,8.321 17.817,8.286C17.643,8.25 17.461,8.267 17.297,8.335C17.132,8.403 16.991,8.518 16.892,8.666C16.793,8.814 16.741,8.988 16.741,9.167C16.742,9.401 16.834,9.627 16.999,9.794C17.164,9.961 17.388,10.057 17.622,10.061Z" fill="#61B3FF"/>
	<path d="M21.656,14.323C21.398,14.323 21.146,14.246 20.931,14.103C20.717,13.96 20.549,13.756 20.451,13.517C20.352,13.279 20.326,13.017 20.377,12.764C20.427,12.511 20.551,12.278 20.733,12.096C20.916,11.913 21.148,11.789 21.401,11.739C21.654,11.689 21.916,11.714 22.155,11.813C22.393,11.912 22.597,12.079 22.74,12.293C22.883,12.508 22.96,12.76 22.96,13.018C22.959,13.364 22.822,13.696 22.577,13.94C22.333,14.184 22.001,14.322 21.656,14.323ZM21.656,13.913C21.832,13.912 22.005,13.86 22.152,13.761C22.299,13.662 22.413,13.523 22.48,13.359C22.548,13.196 22.565,13.016 22.53,12.842C22.496,12.669 22.41,12.51 22.285,12.385C22.16,12.26 22,12.175 21.827,12.141C21.654,12.106 21.474,12.124 21.311,12.192C21.147,12.26 21.008,12.374 20.91,12.521C20.812,12.668 20.759,12.841 20.759,13.018C20.758,13.136 20.781,13.253 20.826,13.362C20.871,13.472 20.937,13.571 21.02,13.654C21.104,13.738 21.203,13.804 21.312,13.849C21.421,13.894 21.538,13.917 21.656,13.917V13.913Z" fill="#007CE6"/>
	<path d="M25.755,9.29C25.755,9.263 25.75,9.237 25.74,9.212C25.73,9.187 25.715,9.164 25.696,9.145C25.678,9.126 25.655,9.111 25.63,9.101C25.606,9.09 25.579,9.085 25.552,9.085H24.649C24.595,9.085 24.543,9.107 24.504,9.145C24.466,9.183 24.444,9.236 24.444,9.29C24.444,9.344 24.466,9.396 24.504,9.435C24.543,9.473 24.595,9.495 24.649,9.495H25.552C25.606,9.494 25.658,9.472 25.696,9.434C25.734,9.396 25.755,9.344 25.755,9.29Z" fill="#61B3FF"/>
	<path d="M27.334,9.29C27.334,9.263 27.329,9.236 27.319,9.212C27.308,9.187 27.293,9.164 27.274,9.145C27.255,9.126 27.233,9.111 27.208,9.101C27.183,9.09 27.156,9.085 27.129,9.085H26.229C26.174,9.085 26.122,9.107 26.084,9.145C26.045,9.183 26.024,9.236 26.024,9.29C26.024,9.344 26.045,9.396 26.084,9.435C26.122,9.473 26.174,9.495 26.229,9.495H27.129C27.156,9.495 27.183,9.49 27.208,9.479C27.233,9.469 27.255,9.454 27.274,9.435C27.293,9.416 27.308,9.393 27.319,9.368C27.329,9.343 27.334,9.317 27.334,9.29Z" fill="#61B3FF"/>
	<path d="M26.094,10.555V9.746C26.094,9.692 26.073,9.64 26.034,9.601C25.996,9.563 25.944,9.541 25.889,9.541C25.835,9.541 25.783,9.563 25.744,9.601C25.706,9.64 25.684,9.692 25.684,9.746V10.555C25.684,10.609 25.706,10.661 25.744,10.7C25.783,10.738 25.835,10.76 25.889,10.76C25.944,10.76 25.996,10.738 26.034,10.7C26.073,10.661 26.094,10.609 26.094,10.555Z" fill="#61B3FF"/>
	<path d="M26.094,8.834V8.023C26.094,7.969 26.073,7.916 26.034,7.878C25.996,7.84 25.944,7.818 25.889,7.818C25.835,7.818 25.783,7.84 25.744,7.878C25.706,7.916 25.684,7.969 25.684,8.023V8.834C25.684,8.888 25.706,8.94 25.744,8.979C25.783,9.017 25.835,9.039 25.889,9.039C25.944,9.039 25.996,9.017 26.034,8.979C26.073,8.94 26.094,8.888 26.094,8.834Z" fill="#61B3FF"/>
	<path d="M14.596,14.03C14.596,14.003 14.591,13.976 14.581,13.951C14.57,13.926 14.555,13.903 14.536,13.884C14.517,13.865 14.495,13.85 14.469,13.84C14.444,13.83 14.418,13.824 14.391,13.825H13.49C13.436,13.825 13.383,13.846 13.345,13.885C13.307,13.923 13.285,13.975 13.285,14.03C13.285,14.084 13.307,14.136 13.345,14.175C13.383,14.213 13.436,14.234 13.49,14.234H14.391C14.418,14.234 14.444,14.229 14.469,14.219C14.494,14.209 14.517,14.193 14.536,14.175C14.555,14.156 14.57,14.133 14.58,14.108C14.59,14.083 14.596,14.057 14.596,14.03Z" fill="#61B3FF"/>
	<path d="M16.175,14.03C16.175,13.975 16.153,13.923 16.115,13.885C16.077,13.846 16.024,13.825 15.97,13.825H15.067C15.013,13.825 14.961,13.846 14.922,13.885C14.884,13.923 14.862,13.975 14.862,14.03C14.862,14.084 14.884,14.136 14.922,14.175C14.961,14.213 15.013,14.234 15.067,14.234H15.97C15.997,14.234 16.024,14.229 16.049,14.219C16.073,14.209 16.096,14.193 16.115,14.175C16.134,14.156 16.149,14.133 16.159,14.108C16.17,14.083 16.175,14.057 16.175,14.03Z" fill="#61B3FF"/>
	<path d="M14.935,15.297V14.486C14.935,14.431 14.913,14.379 14.875,14.341C14.836,14.302 14.784,14.281 14.73,14.281C14.676,14.281 14.624,14.302 14.585,14.341C14.547,14.379 14.525,14.431 14.525,14.486V15.297C14.525,15.351 14.547,15.403 14.585,15.441C14.624,15.48 14.676,15.502 14.73,15.502C14.784,15.502 14.836,15.48 14.875,15.441C14.913,15.403 14.935,15.351 14.935,15.297Z" fill="#61B3FF"/>
	<path d="M14.935,13.573V12.763C14.935,12.708 14.913,12.656 14.875,12.618C14.836,12.579 14.784,12.558 14.73,12.558C14.676,12.558 14.624,12.579 14.585,12.618C14.547,12.656 14.525,12.708 14.525,12.763V13.573C14.525,13.628 14.547,13.68 14.585,13.718C14.624,13.757 14.676,13.778 14.73,13.778C14.784,13.778 14.836,13.757 14.875,13.718C14.913,13.68 14.935,13.628 14.935,13.573Z" fill="#61B3FF"/>
	<path d="M55.964,77.752C59.682,74.875 63.396,71.646 65.605,69.22C68.489,66.052 70.024,63.308 70.165,61.068C70.168,61.032 70.163,60.997 70.152,60.963C70.14,60.93 70.122,60.899 70.099,60.872C70.076,60.846 70.047,60.824 70.016,60.808C69.984,60.793 69.95,60.783 69.914,60.781C69.879,60.779 69.843,60.783 69.81,60.795C69.776,60.806 69.746,60.824 69.719,60.847C69.692,60.871 69.671,60.899 69.655,60.931C69.639,60.962 69.63,60.997 69.628,61.032C69.381,64.941 64.462,70.635 55.391,77.512L55.964,77.752Z" fill="#ABD3F2"/>
	<path d="M67.941,66.18C67.941,66.18 69.436,67.861 72.285,65.118C72.285,65.118 69.269,63.194 67.941,66.18Z" fill="#CAE6FE"/>
	<path d="M66.546,67.671C66.546,67.671 68.308,66.272 65.725,63.264C65.725,63.273 63.639,66.18 66.546,67.671Z" fill="#CAE6FE"/>
	<path d="M69.551,62.705C69.551,62.705 71.676,61.973 70.242,58.287C70.242,58.287 67.308,60.329 69.551,62.705Z" fill="#CAE6FE"/>
	<path d="M63.83,70.756C63.83,70.756 64.667,72.841 68.278,71.223C68.286,71.223 66.084,68.394 63.83,70.756Z" fill="#CAE6FE"/>
	<path d="M62.178,72.054C62.178,72.054 64.16,70.981 62.13,67.581C62.13,67.585 59.574,70.086 62.178,72.054Z" fill="#CAE6FE"/>
	<path d="M60.094,74.068C60.094,74.068 60.892,76.168 64.531,74.621C64.542,74.621 62.396,71.75 60.094,74.068Z" fill="#CAE6FE"/>
	<path d="M19.477,53.146C16.801,49.277 14.234,45.079 12.869,42.098C11.078,38.204 10.446,35.128 10.983,32.953C10.992,32.919 11.007,32.887 11.028,32.858C11.049,32.83 11.075,32.806 11.106,32.788C11.136,32.769 11.169,32.757 11.204,32.752C11.239,32.747 11.275,32.749 11.309,32.757C11.343,32.766 11.376,32.781 11.404,32.802C11.432,32.823 11.456,32.849 11.475,32.88C11.493,32.91 11.505,32.943 11.51,32.978C11.515,33.013 11.514,33.049 11.505,33.083C10.56,36.884 13.53,43.799 20.096,53.095L19.477,53.146Z" fill="#ABD3F2"/>
	<path d="M11.554,38.493C11.554,38.493 9.622,39.643 7.734,36.166C7.734,36.166 11.19,35.256 11.554,38.493Z" fill="#CAE6FE"/>
	<path d="M12.435,40.337C12.435,40.337 11.179,38.471 14.545,36.393C14.538,36.393 15.655,39.793 12.435,40.337Z" fill="#CAE6FE"/>
	<path d="M11.069,34.694C11.069,34.694 9.265,33.354 11.743,30.271C11.743,30.271 13.924,33.107 11.069,34.694Z" fill="#CAE6FE"/>
	<path d="M14.098,44.098C14.098,44.098 12.668,45.833 9.717,43.199C9.71,43.199 12.651,41.166 14.098,44.098Z" fill="#CAE6FE"/>
	<path d="M15.272,45.833C15.272,45.833 13.715,44.213 16.669,41.582C16.669,41.589 18.351,44.746 15.272,45.833Z" fill="#CAE6FE"/>
	<path d="M16.653,48.384C16.653,48.384 15.257,50.147 12.248,47.569C12.256,47.569 15.157,45.478 16.653,48.384Z" fill="#CAE6FE"/>
	<path d="M70.311,14.334C66.879,14.254 65.967,17.419 63.447,16.537C60.927,15.656 58.48,16.623 58.237,18.961C57.995,21.299 57.949,23.051 55.096,23.236C52.243,23.421 49.948,26.208 51.545,28.119C51.939,28.595 52.369,29.108 52.79,29.611L53.131,30.02L53.21,30.113C54.025,31.097 55.173,31.745 56.436,31.933C57.699,32.122 58.987,31.837 60.052,31.133C60.933,30.536 61.594,29.694 61.632,28.509C61.729,24.792 64.746,27.116 66.844,25.56C69.267,23.767 68.02,21.153 69.952,20.023C72.632,18.439 73.743,14.413 70.311,14.334Z" fill="#ABD3F2"/>
	<path d="M67.65,17.947L52.783,29.611L53.125,30.02L67.98,18.366C68.036,18.322 68.072,18.258 68.08,18.188C68.088,18.118 68.068,18.047 68.024,17.992C67.98,17.936 67.916,17.9 67.846,17.892C67.776,17.884 67.705,17.904 67.65,17.947Z" fill="#90C3EF"/>
	<path d="M58.982,7.725C55.975,9.382 56.779,12.573 54.147,13.071C51.514,13.569 49.897,15.645 50.864,17.793C51.832,19.942 52.666,21.475 50.294,23.068C47.922,24.662 47.336,28.225 49.666,29.077L51.492,29.738L51.995,29.919L52.109,29.961C53.307,30.403 54.625,30.387 55.812,29.915C56.998,29.444 57.969,28.551 58.537,27.407C59.006,26.446 59.156,25.384 58.585,24.342C56.803,21.085 60.577,21.579 61.614,19.17C62.801,16.407 60.422,14.777 61.522,12.82C63.053,10.11 61.991,6.071 58.982,7.725Z" fill="#CAE6FE"/>
	<path d="M58.495,12.188L51.492,29.747L51.994,29.928L58.991,12.386C59.017,12.32 59.016,12.247 58.988,12.181C58.961,12.116 58.909,12.065 58.843,12.038C58.777,12.012 58.703,12.014 58.638,12.042C58.573,12.07 58.522,12.122 58.495,12.188Z" fill="#ABD3F2"/>
	<path d="M14.162,53.556C17.32,54.9 16.849,58.154 19.51,58.386C22.171,58.617 23.999,60.514 23.255,62.753C22.51,64.992 21.834,66.596 24.356,67.942C26.878,69.289 27.819,72.772 25.585,73.857L23.834,74.698L23.35,74.936L23.239,74.989C22.092,75.549 20.778,75.665 19.55,75.316C18.322,74.967 17.266,74.176 16.585,73.096C16.023,72.186 15.768,71.146 16.228,70.053C17.673,66.627 13.964,67.499 12.703,65.217C11.234,62.579 13.437,60.724 12.148,58.89C10.353,56.339 11.001,52.223 14.162,53.556Z" fill="#ABD3F2"/>
	<path d="M15.096,57.952L23.834,74.698L23.35,74.936L14.618,58.19C14.602,58.158 14.593,58.124 14.59,58.089C14.588,58.054 14.592,58.019 14.604,57.986C14.615,57.953 14.632,57.922 14.655,57.895C14.678,57.869 14.706,57.847 14.738,57.832C14.769,57.816 14.803,57.807 14.838,57.804C14.873,57.802 14.908,57.806 14.942,57.818C14.975,57.829 15.005,57.846 15.032,57.869C15.058,57.892 15.08,57.92 15.096,57.952Z" fill="#90C3EF"/>
	<path d="M6.357,61.257C9.789,61.38 10.512,64.589 13.08,63.853C15.649,63.117 18.032,64.234 18.136,66.592C18.239,68.949 18.184,70.69 21.019,71.045C23.854,71.4 25.982,74.317 24.284,76.128L22.962,77.545L22.596,77.933C22.57,77.964 22.541,77.993 22.513,78.021C21.642,78.955 20.456,79.534 19.185,79.647C17.913,79.76 16.644,79.399 15.622,78.634C14.772,77.986 14.162,77.107 14.201,75.919C14.325,72.204 11.173,74.346 9.172,72.669C6.857,70.732 8.247,68.2 6.388,66.951C3.798,65.21 2.928,61.125 6.357,61.257Z" fill="#CAE6FE"/>
	<path d="M8.811,65.014L22.962,77.539L22.596,77.926L8.445,65.413C8.393,65.364 8.361,65.297 8.358,65.225C8.355,65.153 8.38,65.083 8.429,65.031C8.477,64.978 8.545,64.946 8.617,64.943C8.688,64.94 8.758,64.965 8.811,65.014Z" fill="#ABD3F2"/>
	<path d="M88.552,81.992C89.092,79.526 91.764,81.331 93.671,79.907C96.094,78.114 94.848,75.5 96.779,74.37C99.467,72.786 100.577,68.76 97.145,68.681C93.713,68.601 92.801,71.766 90.279,70.884C87.757,70.003 85.314,70.97 85.072,73.308C84.829,75.646 84.781,77.398 81.93,77.583C79.307,77.755 77.155,80.126 78.062,81.99L88.552,81.992Z" fill="#ABD3F2"/>
	<path d="M82.979,81.992L94.803,72.715C94.834,72.695 94.859,72.668 94.879,72.637C94.898,72.606 94.911,72.572 94.917,72.536C94.923,72.5 94.921,72.463 94.911,72.427C94.902,72.392 94.886,72.359 94.863,72.33C94.841,72.301 94.813,72.278 94.78,72.26C94.748,72.243 94.713,72.232 94.677,72.229C94.64,72.226 94.604,72.23 94.569,72.242C94.534,72.254 94.503,72.272 94.475,72.297L82.116,81.992H82.979Z" fill="#90C3EF"/>
	<path d="M85.248,81.992C85.29,81.915 85.331,81.838 85.369,81.758C85.836,80.798 85.986,79.735 85.417,78.693C83.635,75.432 87.413,75.926 88.444,73.526C89.634,70.763 87.255,69.132 88.354,67.176C89.882,64.456 88.823,60.417 85.814,62.072C82.805,63.727 83.611,66.92 80.968,67.418C78.325,67.916 76.716,69.989 77.686,72.14C78.655,74.291 79.488,75.822 77.113,77.415C75.476,78.517 74.69,80.553 75.13,81.992H85.248Z" fill="#CAE6FE"/>
	<path d="M79.728,81.992L85.816,66.733C85.829,66.7 85.836,66.665 85.835,66.63C85.835,66.595 85.827,66.561 85.814,66.528C85.8,66.496 85.78,66.467 85.755,66.442C85.73,66.418 85.7,66.399 85.668,66.386C85.635,66.373 85.6,66.366 85.565,66.367C85.53,66.367 85.495,66.374 85.463,66.388C85.431,66.402 85.402,66.422 85.377,66.447C85.353,66.472 85.334,66.502 85.321,66.534L79.153,81.992H79.728Z" fill="#ABD3F2"/>
	<path d="M58.292,23.531H19.948C19.16,23.531 18.521,24.17 18.521,24.959V80.936C18.521,81.725 19.16,82.364 19.948,82.364H58.292C59.081,82.364 59.72,81.725 59.72,80.936V24.959C59.72,24.17 59.081,23.531 58.292,23.531Z" fill="#18184B"/>
	<path d="M55.345,18.476H22.896C22.107,18.476 21.468,19.115 21.468,19.904V77.525C21.468,78.314 22.107,78.953 22.896,78.953H55.345C56.133,78.953 56.772,78.314 56.772,77.525V19.904C56.772,19.115 56.133,18.476 55.345,18.476Z" fill="#304E7E"/>
	<path d="M26.03,18.476H52.206C52.206,18.244 52.115,18.022 51.952,17.857C51.789,17.692 51.568,17.598 51.336,17.595H26.885C26.656,17.602 26.439,17.698 26.279,17.862C26.119,18.027 26.03,18.247 26.03,18.476Z" fill="#18184B"/>
	<path d="M50.972,75.69H27.268C27.12,75.69 27,75.81 27,75.959V76.269C27,76.418 27.12,76.538 27.268,76.538H50.972C51.121,76.538 51.241,76.418 51.241,76.269V75.959C51.241,75.81 51.121,75.69 50.972,75.69Z" fill="#18184B"/>
	<path d="M53.171,24.692V39.676C53.171,39.992 53.046,40.294 52.822,40.517C52.599,40.741 52.297,40.866 51.981,40.866H26.262C26.135,40.866 26.01,40.845 25.889,40.806C25.652,40.728 25.444,40.577 25.298,40.374C25.151,40.171 25.072,39.926 25.072,39.676V24.692C25.072,24.536 25.103,24.382 25.163,24.237C25.222,24.093 25.31,23.962 25.421,23.852C25.531,23.741 25.662,23.654 25.806,23.594C25.951,23.535 26.105,23.504 26.262,23.505H51.986C52.3,23.505 52.602,23.631 52.824,23.853C53.046,24.076 53.171,24.378 53.171,24.692Z" fill="#CAE6FE"/>
	<path d="M50.748,23.505L33.385,40.873H26.262C26.135,40.872 26.01,40.852 25.889,40.813L43.192,23.505H50.748Z" strokeAlpha="0.4" fill="#ffffff" fillAlpha="0.4"/>
	<path d="M35.972,23.505L25.072,34.405V31.92L33.485,23.505H35.972Z" strokeAlpha="0.4" fill="#ffffff" fillAlpha="0.4"/>
	<path d="M53.171,29.992V32.477L44.778,40.873H42.293L53.171,29.992Z" strokeAlpha="0.4" fill="#ffffff" fillAlpha="0.4"/>
	<path d="M31.775,44.993H26.103C25.96,44.993 25.819,44.965 25.687,44.91C25.556,44.856 25.436,44.776 25.335,44.675C25.234,44.574 25.154,44.454 25.1,44.322C25.045,44.191 25.017,44.049 25.017,43.907C25.017,43.764 25.045,43.623 25.099,43.491C25.154,43.359 25.234,43.239 25.334,43.138C25.435,43.037 25.555,42.957 25.687,42.903C25.819,42.848 25.96,42.82 26.103,42.82H31.775C32.063,42.82 32.339,42.935 32.543,43.139C32.747,43.342 32.861,43.619 32.861,43.907C32.861,44.049 32.833,44.191 32.778,44.322C32.724,44.454 32.644,44.574 32.543,44.675C32.442,44.776 32.322,44.856 32.191,44.91C32.059,44.965 31.918,44.993 31.775,44.993Z" fill="#CAE6FE"/>
	<path d="M41.959,44.993H36.284C36.142,44.993 36,44.965 35.869,44.91C35.737,44.856 35.617,44.776 35.516,44.675C35.416,44.574 35.335,44.454 35.281,44.322C35.226,44.191 35.198,44.049 35.198,43.907C35.198,43.619 35.313,43.342 35.516,43.139C35.72,42.935 35.996,42.82 36.284,42.82H41.959C42.247,42.82 42.523,42.935 42.727,43.139C42.93,43.342 43.045,43.619 43.045,43.907C43.045,44.049 43.016,44.191 42.962,44.322C42.907,44.454 42.827,44.574 42.727,44.675C42.626,44.776 42.506,44.856 42.374,44.91C42.243,44.965 42.101,44.993 41.959,44.993Z" fill="#CAE6FE"/>
	<path d="M52.14,44.993H46.479C46.336,44.993 46.195,44.965 46.063,44.91C45.931,44.856 45.812,44.776 45.711,44.675C45.61,44.574 45.53,44.454 45.475,44.322C45.421,44.191 45.393,44.049 45.393,43.907C45.393,43.764 45.42,43.623 45.475,43.491C45.529,43.359 45.609,43.239 45.71,43.138C45.811,43.037 45.931,42.957 46.063,42.903C46.195,42.848 46.336,42.82 46.479,42.82H52.14C52.428,42.82 52.704,42.935 52.908,43.139C53.111,43.342 53.226,43.619 53.226,43.907C53.226,44.049 53.198,44.191 53.143,44.322C53.089,44.454 53.009,44.574 52.908,44.675C52.807,44.776 52.687,44.856 52.556,44.91C52.424,44.965 52.283,44.993 52.14,44.993Z" fill="#CAE6FE"/>
	<path d="M32.185,51.877H25.356C25.186,51.868 25.027,51.792 24.913,51.665C24.799,51.539 24.74,51.372 24.748,51.202V47.924C24.74,47.754 24.8,47.588 24.914,47.462C25.028,47.336 25.187,47.261 25.356,47.252H32.185C32.354,47.261 32.513,47.336 32.627,47.462C32.741,47.588 32.801,47.754 32.793,47.924V51.202C32.801,51.372 32.742,51.539 32.628,51.665C32.514,51.792 32.355,51.868 32.185,51.877Z" fill="#CAE6FE"/>
	<path d="M42.531,51.877H35.703C35.533,51.868 35.374,51.792 35.26,51.665C35.146,51.539 35.086,51.372 35.095,51.202V47.924C35.087,47.754 35.146,47.588 35.26,47.462C35.374,47.336 35.533,47.261 35.703,47.252H42.531C42.701,47.261 42.86,47.336 42.974,47.462C43.088,47.588 43.147,47.754 43.139,47.924V51.202C43.148,51.372 43.089,51.539 42.975,51.665C42.861,51.792 42.701,51.868 42.531,51.877Z" fill="#CAE6FE"/>
	<path d="M52.867,51.877H46.058C45.888,51.868 45.729,51.792 45.615,51.665C45.501,51.539 45.442,51.372 45.45,51.202V47.924C45.442,47.754 45.501,47.588 45.615,47.462C45.729,47.336 45.888,47.26 46.058,47.252H52.867C53.037,47.26 53.196,47.336 53.311,47.462C53.425,47.588 53.485,47.754 53.477,47.924V51.202C53.485,51.373 53.425,51.539 53.311,51.665C53.196,51.792 53.037,51.868 52.867,51.877Z" fill="#CAE6FE"/>
	<path d="M32.185,59.146H25.356C25.187,59.137 25.028,59.061 24.914,58.935C24.8,58.809 24.74,58.644 24.748,58.474V55.195C24.74,55.025 24.799,54.859 24.913,54.732C25.027,54.606 25.186,54.53 25.356,54.521H32.185C32.355,54.53 32.514,54.606 32.628,54.732C32.742,54.859 32.801,55.025 32.793,55.195V58.474C32.801,58.644 32.741,58.809 32.627,58.935C32.513,59.061 32.354,59.137 32.185,59.146Z" fill="#CAE6FE"/>
	<path d="M42.531,59.146H35.703C35.533,59.137 35.374,59.061 35.26,58.935C35.146,58.809 35.087,58.644 35.095,58.474V55.195C35.086,55.025 35.146,54.859 35.26,54.732C35.374,54.606 35.533,54.53 35.703,54.521H42.531C42.701,54.53 42.861,54.606 42.975,54.732C43.089,54.859 43.148,55.025 43.139,55.195V58.474C43.147,58.644 43.088,58.809 42.974,58.935C42.86,59.061 42.701,59.137 42.531,59.146Z" fill="#CAE6FE"/>
	<path d="M52.867,59.146H46.058C45.888,59.138 45.729,59.062 45.615,58.936C45.501,58.81 45.442,58.644 45.45,58.474V55.195C45.442,55.025 45.501,54.859 45.615,54.732C45.729,54.606 45.888,54.53 46.058,54.521H52.867C53.037,54.53 53.196,54.606 53.311,54.732C53.425,54.859 53.485,55.025 53.477,55.195V58.474C53.485,58.644 53.425,58.81 53.311,58.936C53.196,59.062 53.037,59.138 52.867,59.146Z" fill="#CAE6FE"/>
	<path d="M32.185,66.415H25.356C25.187,66.406 25.028,66.33 24.914,66.205C24.8,66.079 24.74,65.913 24.748,65.743V62.465C24.74,62.295 24.799,62.128 24.913,62.002C25.027,61.875 25.186,61.799 25.356,61.79H32.185C32.355,61.799 32.514,61.875 32.628,62.002C32.742,62.128 32.801,62.295 32.793,62.465V65.743C32.801,65.913 32.741,66.079 32.627,66.205C32.513,66.33 32.354,66.406 32.185,66.415Z" fill="#CAE6FE"/>
	<path d="M42.531,66.415H35.703C35.533,66.406 35.374,66.33 35.26,66.205C35.146,66.079 35.087,65.913 35.095,65.743V62.465C35.086,62.295 35.146,62.128 35.26,62.002C35.374,61.875 35.533,61.799 35.703,61.79H42.531C42.701,61.799 42.861,61.875 42.975,62.002C43.089,62.128 43.148,62.295 43.139,62.465V65.743C43.147,65.913 43.088,66.079 42.974,66.205C42.86,66.33 42.701,66.406 42.531,66.415Z" fill="#CAE6FE"/>
	<path d="M52.867,66.415H46.058C45.888,66.407 45.729,66.331 45.615,66.205C45.501,66.079 45.442,65.913 45.45,65.743V62.465C45.442,62.295 45.501,62.128 45.615,62.002C45.729,61.875 45.888,61.799 46.058,61.79H52.867C53.037,61.799 53.196,61.875 53.311,62.002C53.425,62.128 53.485,62.294 53.477,62.465V65.743C53.485,65.913 53.425,66.079 53.311,66.205C53.196,66.331 53.037,66.407 52.867,66.415Z" fill="#CAE6FE"/>
	<path d="M32.185,73.544H25.356C25.187,73.535 25.028,73.459 24.914,73.333C24.8,73.207 24.74,73.041 24.748,72.872V69.593C24.74,69.423 24.799,69.257 24.913,69.13C25.027,69.004 25.186,68.928 25.356,68.919H32.185C32.355,68.928 32.514,69.004 32.628,69.13C32.742,69.257 32.801,69.423 32.793,69.593V72.872C32.801,73.041 32.741,73.207 32.627,73.333C32.513,73.459 32.354,73.535 32.185,73.544Z" fill="#007CE6"/>
	<path d="M42.531,73.544H35.703C35.533,73.535 35.374,73.459 35.26,73.333C35.146,73.207 35.087,73.041 35.095,72.872V69.593C35.086,69.423 35.146,69.257 35.26,69.13C35.374,69.004 35.533,68.928 35.703,68.919H42.531C42.701,68.928 42.861,69.004 42.975,69.13C43.089,69.257 43.148,69.423 43.139,69.593V72.872C43.147,73.041 43.088,73.207 42.974,73.333C42.86,73.459 42.701,73.535 42.531,73.544Z" fill="#61B3FF"/>
	<path d="M52.867,73.544H46.058C45.888,73.535 45.729,73.46 45.615,73.334C45.501,73.207 45.442,73.041 45.45,72.872V69.593C45.442,69.423 45.501,69.257 45.615,69.13C45.729,69.004 45.888,68.928 46.058,68.919H52.867C53.037,68.928 53.196,69.004 53.311,69.13C53.425,69.256 53.485,69.423 53.477,69.593V72.872C53.485,73.042 53.425,73.208 53.311,73.334C53.196,73.46 53.037,73.535 52.867,73.544Z" fill="#009EF3"/>
	<path d="M88.072,74.837L89.528,76.8C89.528,76.8 89.233,77.658 88.107,78.297L86.365,76.036L88.072,74.837Z" fill="#FDA893"/>
	<path d="M88.371,77.704C88.371,77.704 87.671,77.543 87.426,77.77C87.182,77.997 86.506,81.159 85.926,81.842C85.347,82.525 85.904,82.904 86.248,83.054C86.591,83.204 91.675,78.539 91.675,78.539C91.675,78.539 90.484,76.878 89.898,76.556C89.312,76.234 89.008,77.382 88.371,77.704Z" fill="#007CE6"/>
	<path d="M88.215,79.46C88.245,79.446 88.27,79.422 88.283,79.392C88.289,79.377 88.292,79.361 88.291,79.345C88.291,79.329 88.287,79.313 88.281,79.299C88.274,79.284 88.265,79.271 88.253,79.26C88.241,79.249 88.228,79.241 88.213,79.235C87.914,79.123 87.593,79.084 87.277,79.121C87.125,79.146 86.984,79.212 86.867,79.312C86.751,79.412 86.664,79.541 86.616,79.687C86.612,79.702 86.61,79.719 86.613,79.735C86.615,79.751 86.621,79.766 86.629,79.779C86.638,79.793 86.649,79.805 86.662,79.814C86.675,79.823 86.69,79.829 86.706,79.832C86.722,79.837 86.738,79.838 86.754,79.836C86.77,79.834 86.786,79.829 86.8,79.821C86.814,79.813 86.826,79.802 86.836,79.789C86.846,79.777 86.854,79.762 86.858,79.746C86.895,79.645 86.959,79.556 87.042,79.487C87.125,79.419 87.225,79.374 87.332,79.356C87.6,79.33 87.87,79.366 88.122,79.46C88.152,79.471 88.185,79.471 88.215,79.46Z" fill="#ffffff"/>
	<path d="M88.283,78.969C88.305,78.96 88.324,78.945 88.337,78.925C88.35,78.905 88.357,78.882 88.357,78.858C88.357,78.835 88.35,78.812 88.337,78.792C88.324,78.772 88.305,78.757 88.283,78.748C87.985,78.635 87.664,78.594 87.347,78.632C87.196,78.657 87.055,78.723 86.938,78.823C86.822,78.923 86.735,79.052 86.686,79.198C86.682,79.214 86.681,79.23 86.683,79.246C86.686,79.262 86.691,79.277 86.7,79.291C86.708,79.305 86.719,79.317 86.732,79.326C86.746,79.336 86.761,79.342 86.776,79.345C86.808,79.354 86.842,79.349 86.87,79.333C86.898,79.317 86.919,79.291 86.928,79.259C86.965,79.158 87.029,79.068 87.112,78.999C87.195,78.93 87.295,78.884 87.402,78.867C87.67,78.842 87.94,78.877 88.193,78.971C88.222,78.981 88.254,78.98 88.283,78.969Z" fill="#ffffff"/>
	<path d="M88.001,79.987C88.017,79.98 88.031,79.971 88.042,79.96C88.054,79.948 88.063,79.934 88.07,79.918C88.076,79.904 88.078,79.888 88.078,79.872C88.078,79.855 88.074,79.84 88.068,79.825C88.061,79.811 88.052,79.797 88.04,79.786C88.028,79.776 88.014,79.767 87.999,79.762C87.701,79.649 87.38,79.61 87.063,79.647C86.912,79.673 86.77,79.739 86.654,79.838C86.537,79.938 86.45,80.068 86.402,80.214C86.398,80.229 86.397,80.245 86.4,80.261C86.402,80.277 86.408,80.293 86.416,80.306C86.425,80.32 86.436,80.332 86.449,80.341C86.462,80.351 86.477,80.358 86.492,80.361C86.524,80.369 86.558,80.365 86.586,80.348C86.615,80.332 86.636,80.305 86.644,80.273C86.682,80.172 86.745,80.082 86.828,80.014C86.912,79.946 87.012,79.9 87.118,79.883C87.386,79.856 87.657,79.892 87.909,79.987C87.939,79.997 87.971,79.997 88.001,79.987Z" fill="#ffffff"/>
	<path d="M79.192,48.415L80.252,61.312C81.369,62.741 82.363,64.262 83.221,65.86C84.263,67.868 88.728,75.058 88.728,75.058L86.473,76.82L75.214,63.584L73.011,48.144L79.192,48.415Z" fill="#16162F"/>
	<path d="M76.274,78.116L76.098,80.617C76.098,80.617 75.304,81.117 74.011,80.914L74.163,77.993L76.274,78.116Z" fill="#FDA893"/>
	<path d="M74.454,80.553C74.454,80.553 74.014,79.954 73.648,79.982C73.282,80.011 70.564,82.208 69.623,82.393C68.683,82.578 68.872,83.274 69.046,83.622C69.22,83.971 76.509,83.622 76.509,83.622C76.509,83.622 76.73,81.262 76.485,80.597C76.241,79.932 75.194,80.707 74.454,80.553Z" fill="#007CE6"/>
	<path d="M73.066,81.864C73.082,81.871 73.099,81.875 73.116,81.875C73.133,81.875 73.15,81.871 73.166,81.864C73.18,81.857 73.194,81.846 73.204,81.834C73.215,81.821 73.223,81.806 73.228,81.79C73.233,81.775 73.235,81.758 73.233,81.741C73.231,81.725 73.226,81.709 73.218,81.694C73.073,81.41 72.858,81.167 72.595,80.987C72.462,80.908 72.309,80.867 72.155,80.867C71.999,80.867 71.847,80.908 71.714,80.987C71.689,81.007 71.672,81.035 71.668,81.067C71.663,81.098 71.67,81.13 71.688,81.156C71.706,81.183 71.733,81.201 71.764,81.208C71.795,81.215 71.827,81.21 71.855,81.194C71.95,81.139 72.058,81.11 72.168,81.11C72.278,81.11 72.385,81.139 72.48,81.194C72.7,81.351 72.879,81.558 73.003,81.798C73.015,81.827 73.037,81.851 73.066,81.864Z" fill="#ffffff"/>
	<path d="M73.456,81.529C73.471,81.536 73.488,81.54 73.505,81.54C73.521,81.54 73.538,81.536 73.553,81.529C73.583,81.514 73.605,81.487 73.615,81.455C73.626,81.424 73.623,81.389 73.608,81.359C73.461,81.077 73.247,80.834 72.985,80.652C72.851,80.575 72.699,80.534 72.544,80.534C72.39,80.534 72.238,80.575 72.104,80.652C72.076,80.671 72.058,80.7 72.051,80.732C72.045,80.765 72.052,80.799 72.071,80.826C72.09,80.854 72.118,80.872 72.151,80.879C72.184,80.885 72.217,80.878 72.245,80.859C72.34,80.803 72.448,80.774 72.558,80.774C72.668,80.774 72.775,80.803 72.87,80.859C73.091,81.016 73.271,81.223 73.395,81.463C73.4,81.478 73.408,81.491 73.419,81.502C73.429,81.514 73.442,81.523 73.456,81.529Z" fill="#ffffff"/>
	<path d="M72.549,82.131C72.58,82.144 72.616,82.144 72.648,82.131C72.663,82.123 72.676,82.113 72.687,82.101C72.697,82.088 72.705,82.074 72.71,82.058C72.715,82.043 72.717,82.026 72.715,82.01C72.714,81.993 72.709,81.978 72.701,81.963C72.555,81.679 72.341,81.436 72.077,81.256C71.944,81.177 71.792,81.135 71.637,81.135C71.482,81.135 71.33,81.177 71.196,81.256C71.169,81.275 71.15,81.303 71.144,81.336C71.138,81.369 71.145,81.402 71.163,81.43C71.182,81.457 71.211,81.476 71.243,81.483C71.276,81.489 71.309,81.483 71.337,81.465C71.432,81.409 71.54,81.379 71.65,81.379C71.76,81.379 71.868,81.409 71.963,81.465C72.182,81.623 72.361,81.829 72.485,82.069C72.499,82.096 72.521,82.118 72.549,82.131Z" fill="#ffffff"/>
	<path d="M86.219,48.948C86.219,48.948 83.298,58.498 79.664,63.602C79.664,63.602 79.023,68.636 78.067,71.303C77.646,72.468 76.49,79.456 76.49,79.456L76.049,79.383L75.796,79.339L73.884,79.017L75.137,62.359L79.662,49.297L85.124,49.001L85.413,48.988L86.219,48.948Z" fill="#2A3554"/>
	<path d="M85.413,48.992L79.098,63.597C79.098,63.615 78.113,67.596 77.556,70.399C77.047,72.891 76.294,77.23 76.067,79.376L75.813,79.332C76.034,77.171 76.78,72.9 77.3,70.346C77.868,67.541 78.853,63.555 78.862,63.516L85.133,49.008L85.413,48.992Z" fill="#16162F"/>
	<path d="M71.784,27.121L68.861,32.896L71.945,32.627C71.945,32.627 72.251,29.132 71.784,27.121Z" fill="#009EF3"/>
	<path d="M86.497,49.279C84.985,49.835 83.426,50.251 81.838,50.522L81.618,50.557L81.503,50.575L81.252,50.612L80.97,50.652C79.901,50.793 78.824,50.867 77.745,50.872C77.525,50.872 77.305,50.872 77.084,50.872H77.042H76.875H76.776C75.498,50.829 74.224,50.695 72.965,50.469C72.936,50.187 72.899,49.768 72.853,49.241C72.853,49.142 72.835,49.041 72.828,48.935C72.762,48.181 72.685,47.241 72.608,46.179C72.608,46.088 72.595,45.996 72.586,45.903C72.531,45.196 72.472,44.44 72.414,43.649C72.414,43.556 72.399,43.466 72.392,43.374C72.333,42.563 72.271,41.721 72.212,40.866C72.174,40.344 72.139,39.817 72.104,39.29C72.068,38.764 72.033,38.22 72,37.688C72,37.572 71.985,37.468 71.978,37.34C71.665,32.31 71.476,27.678 71.78,27.134C72,26.757 72.511,26.29 73.128,25.812L73.359,25.635C73.624,25.437 75.829,24.468 76.104,24.271L78.492,23.895C78.507,23.895 80.871,24.479 80.888,24.485C80.992,24.534 81.096,24.58 81.199,24.631C82.006,24.977 82.776,25.4 83.501,25.895C83.572,25.949 83.639,26.006 83.704,26.067C83.748,26.109 83.79,26.154 83.829,26.202C83.873,26.265 83.907,26.334 83.93,26.407C84.314,27.438 84.827,31.576 85.296,36.089C85.307,36.197 85.316,36.309 85.329,36.413L85.362,36.737L85.395,37.063C85.409,37.206 85.424,37.349 85.439,37.503C85.439,37.6 85.459,37.702 85.468,37.799C85.468,37.849 85.468,37.898 85.483,37.946C85.499,37.995 85.483,38.019 85.494,38.054L85.554,38.682C85.574,38.863 85.591,39.041 85.609,39.222C85.779,40.985 85.937,42.73 86.072,44.262C86.111,44.702 86.148,45.118 86.182,45.509C86.182,45.599 86.197,45.692 86.204,45.78C86.349,47.39 86.451,48.658 86.497,49.279Z" fill="#61B3FF"/>
	<path d="M86.076,44.239C84.781,46.07 83.268,47.735 81.569,49.197L80.99,45.048C81.798,43.418 83.675,39.877 85.334,36.399L85.367,36.723L85.4,37.049C85.413,37.193 85.428,37.336 85.444,37.49C85.444,37.587 85.464,37.688 85.473,37.785C85.473,37.836 85.473,37.885 85.488,37.933C85.503,37.981 85.488,38.006 85.499,38.041L85.558,38.669C85.578,38.85 85.596,39.028 85.614,39.209C85.783,40.985 85.942,42.708 86.076,44.239Z" fill="#009EF3"/>
	<path d="M75.76,31.351L72.996,31.431C72.996,31.431 73.183,34.782 74.639,34.551C76.095,34.319 75.76,31.351 75.76,31.351Z" fill="#009EF3"/>
	<path d="M83.279,45.59C80.681,45.811 78.364,44.817 76.877,43.949C75.928,43.403 75.045,42.747 74.247,41.996C74.235,41.985 74.226,41.971 74.22,41.956C74.213,41.941 74.21,41.925 74.21,41.908C74.21,41.892 74.213,41.875 74.22,41.86C74.226,41.845 74.235,41.832 74.247,41.82C74.271,41.797 74.303,41.784 74.336,41.784C74.37,41.784 74.402,41.797 74.425,41.82C75.212,42.556 76.079,43.199 77.012,43.737C78.465,44.583 80.732,45.55 83.259,45.341C83.276,45.338 83.294,45.338 83.311,45.342C83.328,45.346 83.344,45.354 83.358,45.364C83.372,45.375 83.383,45.388 83.392,45.404C83.4,45.419 83.406,45.436 83.407,45.453C83.409,45.471 83.407,45.489 83.401,45.505C83.395,45.522 83.386,45.537 83.374,45.55C83.362,45.563 83.348,45.573 83.332,45.58C83.316,45.587 83.298,45.59 83.281,45.59H83.279Z" fill="#009EF3"/>
	<path d="M80.651,46.714C78.399,46.91 76.042,45.822 75.935,45.771C75.912,45.753 75.897,45.728 75.891,45.701C75.885,45.673 75.888,45.644 75.9,45.619C75.912,45.593 75.933,45.573 75.958,45.56C75.984,45.548 76.013,45.544 76.04,45.55C76.069,45.564 78.842,46.844 81.164,46.397C81.18,46.393 81.197,46.393 81.214,46.396C81.23,46.399 81.246,46.405 81.26,46.415C81.274,46.424 81.286,46.436 81.295,46.45C81.304,46.464 81.311,46.48 81.314,46.496C81.317,46.513 81.317,46.53 81.313,46.546C81.31,46.563 81.303,46.578 81.293,46.592C81.284,46.606 81.271,46.617 81.257,46.626C81.243,46.635 81.227,46.641 81.21,46.644C81.025,46.677 80.838,46.7 80.651,46.714Z" fill="#009EF3"/>
	<path d="M76.635,42.942L78.135,46.489L79.501,43.078L77.868,28.841L77.805,28.306L77.157,28.271L77.131,29.002L76.635,42.942Z" fill="#ffffff"/>
	<path d="M77.131,29.002L77.472,29.361L77.868,28.841L77.805,28.306L77.157,28.271L77.131,29.002Z" fill="#EDEDED"/>
	<path d="M78.562,27.475L77.412,28.817L76.465,27.367L77.159,25.909L78.562,27.475Z" fill="#ffffff"/>
	<path d="M78.842,23.716L79.228,23.937C79.333,23.997 79.436,24.064 79.534,24.137C79.675,24.215 79.788,24.336 79.855,24.483C79.922,24.63 79.941,24.794 79.908,24.952C79.905,25.01 79.896,25.068 79.882,25.124L79.481,28.498L77.159,25.902C77.159,25.902 78.622,25.239 78.842,23.716Z" fill="#009EF3"/>
	<path d="M76.108,24.088C76.108,24.088 75.227,25.076 75.606,26.129L76.201,27.923L77.159,25.909C77.159,25.909 76.311,25.488 76.108,24.088Z" fill="#009EF3"/>
	<path d="M80.457,17.513C80.637,19.6 79.479,21.149 77.393,21.332C75.307,21.515 73.718,20.094 73.536,18.005C73.353,15.916 74.454,14.23 76.54,14.05C79.043,13.831 80.276,15.424 80.457,17.513Z" fill="#1D3062"/>
	<path d="M80.329,18.78C80.329,18.78 80.739,18.192 80.549,16.797C80.36,15.402 79.86,15.034 79.86,15.034C79.86,15.034 80.364,13.974 79.791,13.726C79.627,13.653 79.447,13.623 79.268,13.638C79.089,13.654 78.917,13.714 78.767,13.814C78.767,13.814 79.113,13.153 78.705,13.102C78.298,13.051 77.758,13.463 77.758,13.463C77.758,13.463 74.818,12.641 73.983,13.342C73.148,14.043 73.904,15.845 74.155,16.033L80.329,18.78Z" fill="#1D3062"/>
	<path d="M80.067,18.452C80.067,18.452 80.578,17.628 81.065,18.232C81.551,18.835 81.107,20.774 80.012,20.404L80.067,18.452Z" fill="#FB876B"/>
	<path d="M80.181,19.801C80.201,19.799 80.22,19.792 80.235,19.778C80.25,19.765 80.259,19.747 80.263,19.728C80.311,19.54 80.399,19.364 80.519,19.212C80.64,19.061 80.791,18.936 80.963,18.847C80.985,18.836 81.001,18.818 81.009,18.796C81.017,18.773 81.016,18.749 81.005,18.728C80.995,18.706 80.977,18.69 80.954,18.682C80.932,18.674 80.908,18.675 80.886,18.686C80.688,18.787 80.513,18.93 80.375,19.106C80.237,19.281 80.139,19.484 80.087,19.701C80.083,19.725 80.088,19.749 80.101,19.768C80.114,19.788 80.134,19.802 80.157,19.807C80.165,19.806 80.174,19.804 80.181,19.801Z" fill="#D45C48"/>
	<path d="M80.776,19.455C80.793,19.453 80.809,19.447 80.822,19.437C80.832,19.43 80.84,19.421 80.846,19.411C80.852,19.4 80.855,19.389 80.857,19.377C80.858,19.366 80.857,19.354 80.854,19.343C80.851,19.331 80.845,19.321 80.838,19.311C80.742,19.199 80.618,19.116 80.479,19.069C80.457,19.065 80.435,19.069 80.416,19.08C80.397,19.091 80.383,19.108 80.376,19.129C80.369,19.149 80.37,19.172 80.378,19.192C80.386,19.212 80.402,19.229 80.422,19.239C80.527,19.275 80.621,19.337 80.697,19.419C80.706,19.432 80.718,19.441 80.732,19.447C80.746,19.454 80.761,19.456 80.776,19.455Z" fill="#D45C48"/>
	<path d="M74.093,18.972C74.093,18.972 73.445,18.249 73.071,18.926C72.696,19.602 73.469,21.438 74.483,20.885L74.093,18.972Z" fill="#FB876B"/>
	<path d="M74.203,20.321C74.183,20.323 74.164,20.318 74.147,20.308C74.13,20.298 74.117,20.282 74.11,20.263C74.031,20.085 73.915,19.926 73.769,19.796C73.624,19.666 73.453,19.569 73.267,19.51C73.256,19.507 73.245,19.501 73.236,19.494C73.226,19.487 73.218,19.478 73.213,19.468C73.207,19.457 73.203,19.446 73.202,19.434C73.201,19.423 73.202,19.411 73.205,19.399C73.208,19.388 73.214,19.378 73.221,19.368C73.228,19.359 73.237,19.351 73.247,19.345C73.257,19.34 73.269,19.336 73.281,19.335C73.292,19.333 73.304,19.334 73.315,19.338C73.529,19.403 73.725,19.515 73.892,19.664C74.058,19.813 74.19,19.997 74.278,20.202C74.282,20.212 74.284,20.224 74.284,20.236C74.284,20.247 74.281,20.259 74.276,20.27C74.272,20.28 74.265,20.29 74.257,20.298C74.248,20.306 74.238,20.312 74.227,20.316L74.203,20.321Z" fill="#D45C48"/>
	<path d="M73.573,20.08C73.556,20.085 73.539,20.085 73.522,20.08C73.502,20.069 73.486,20.05 73.479,20.028C73.472,20.005 73.474,19.98 73.485,19.959C73.558,19.83 73.664,19.723 73.793,19.651C73.804,19.645 73.815,19.641 73.827,19.64C73.839,19.638 73.851,19.639 73.862,19.643C73.874,19.646 73.884,19.651 73.894,19.659C73.903,19.666 73.911,19.676 73.917,19.686C73.923,19.696 73.926,19.708 73.927,19.719C73.929,19.731 73.928,19.743 73.925,19.754C73.921,19.765 73.916,19.776 73.908,19.785C73.901,19.794 73.892,19.802 73.881,19.807C73.784,19.859 73.701,19.935 73.641,20.028C73.635,20.041 73.626,20.053 73.614,20.063C73.602,20.072 73.588,20.078 73.573,20.08Z" fill="#D45C48"/>
	<path d="M75.961,22.37L76.124,24.247C76.124,24.247 76.023,26.028 77.446,25.893C78.205,25.82 78.882,24.208 78.882,24.208L78.712,22.264L75.961,22.37Z" fill="#FBA691"/>
	<path d="M75.961,22.37L76.031,23.203C76.589,23.723 77.503,23.787 78.822,23.472L78.717,22.264L75.961,22.37Z" fill="#FB876B"/>
	<path d="M73.573,17.721C73.668,18.513 73.815,19.298 74.014,20.072C74.064,20.25 74.117,20.417 74.174,20.567C74.69,21.916 75.884,24.203 78.565,22.974C79.75,22.431 80.197,21.021 80.327,19.615C80.398,18.755 80.384,17.889 80.287,17.031C80.251,16.691 80.127,16.366 79.928,16.088C79.728,15.811 79.459,15.59 79.148,15.449C77.437,14.664 75.743,15.16 74.646,15.693C74.277,15.876 73.975,16.17 73.783,16.534C73.59,16.898 73.517,17.313 73.573,17.721Z" fill="#FBA691"/>
	<path d="M78.109,18.73C78.126,18.93 78.243,19.084 78.371,19.071C78.498,19.058 78.591,18.89 78.569,18.69C78.547,18.49 78.435,18.335 78.307,18.346C78.179,18.357 78.091,18.534 78.109,18.73Z" fill="#1D3062"/>
	<path d="M75.432,18.965C75.45,19.166 75.566,19.32 75.694,19.309C75.822,19.298 75.915,19.126 75.893,18.926C75.87,18.725 75.758,18.573 75.63,18.584C75.503,18.595 75.415,18.765 75.432,18.965Z" fill="#1D3062"/>
	<path d="M74.928,17.756C74.928,17.756 75.63,17.405 76.212,17.597L76.183,17.914C76.183,17.914 75.353,17.914 74.954,18.122C74.903,18.007 74.893,17.877 74.928,17.756Z" fill="#1D3062"/>
	<path d="M79.168,17.388C79.168,17.388 78.415,17.167 77.875,17.454L77.959,17.76C77.959,17.76 78.774,17.619 79.203,17.76C79.236,17.636 79.223,17.504 79.168,17.388Z" fill="#1D3062"/>
	<path d="M77.135,20.404C77.246,20.404 77.356,20.385 77.461,20.347C77.483,20.339 77.501,20.322 77.511,20.301C77.521,20.279 77.522,20.255 77.514,20.232C77.506,20.21 77.489,20.192 77.467,20.182C77.446,20.172 77.422,20.171 77.399,20.18C77.318,20.208 77.122,20.254 77.04,20.199C77.027,20.19 77.016,20.178 77.008,20.163C77.001,20.148 76.997,20.132 76.998,20.116C76.976,19.801 77.1,18.758 77.1,18.747C77.103,18.724 77.096,18.7 77.082,18.682C77.067,18.663 77.046,18.651 77.023,18.648C76.999,18.645 76.976,18.652 76.957,18.666C76.938,18.681 76.926,18.702 76.924,18.725C76.864,19.19 76.829,19.658 76.82,20.127C76.821,20.171 76.833,20.214 76.854,20.252C76.876,20.291 76.906,20.323 76.943,20.347C77.001,20.383 77.067,20.403 77.135,20.404Z" fill="#FB876B"/>
	<path d="M78.401,20.834C78.36,21.206 78.181,21.903 77.36,21.973C76.538,22.044 76.258,21.447 76.144,21.03L78.401,20.834Z" fill="#ffffff"/>
	<path d="M77.476,22.52C77.325,22.528 77.174,22.499 77.036,22.436C77.015,22.425 76.998,22.406 76.991,22.383C76.984,22.361 76.985,22.336 76.996,22.315C77.001,22.304 77.008,22.295 77.017,22.287C77.026,22.28 77.036,22.274 77.047,22.27C77.058,22.266 77.07,22.265 77.082,22.266C77.093,22.267 77.105,22.27 77.115,22.275C77.225,22.324 77.345,22.346 77.465,22.341C77.579,22.325 77.688,22.283 77.783,22.218C77.802,22.204 77.825,22.198 77.849,22.201C77.872,22.205 77.893,22.218 77.907,22.236C77.921,22.256 77.927,22.279 77.923,22.303C77.92,22.326 77.907,22.347 77.888,22.361C77.767,22.448 77.625,22.503 77.476,22.52Z" fill="#FB876B"/>
	<path d="M73.769,19.016L74.174,18.981C74.123,18.563 74.163,18.139 74.291,17.738C74.511,16.973 73.888,16.698 74.331,16.284C74.774,15.87 75.97,15.927 76.791,15.83C77.613,15.733 78.948,15.627 79.278,15.673C79.609,15.72 79.477,16.273 79.395,16.7C79.313,17.128 79.866,17.542 79.992,17.965C80.029,18.131 80.044,18.302 80.036,18.472L80.371,18.441C80.371,17.914 80.329,17.425 80.287,17.031C80.251,16.691 80.127,16.366 79.928,16.088C79.728,15.811 79.459,15.59 79.148,15.449C77.437,14.664 75.743,15.16 74.646,15.693C74.275,15.874 73.971,16.168 73.776,16.532C73.582,16.896 73.507,17.312 73.562,17.721C73.615,18.117 73.685,18.571 73.769,19.016Z" fill="#1D3062"/>
	<path d="M75.749,20.224C75.545,20.241 75.339,20.198 75.159,20.098C74.979,19.999 74.832,19.849 74.738,19.666C74.643,19.483 74.605,19.277 74.627,19.073C74.65,18.868 74.733,18.675 74.865,18.518C74.998,18.36 75.174,18.246 75.371,18.188C75.568,18.131 75.779,18.134 75.975,18.196C76.171,18.258 76.344,18.377 76.472,18.537C76.601,18.698 76.679,18.893 76.697,19.098C76.72,19.372 76.633,19.645 76.456,19.856C76.278,20.067 76.024,20.199 75.749,20.224ZM75.582,18.311C75.408,18.326 75.243,18.392 75.106,18.5C74.97,18.609 74.869,18.756 74.816,18.923C74.763,19.089 74.761,19.267 74.81,19.435C74.858,19.602 74.956,19.752 75.089,19.864C75.223,19.976 75.387,20.046 75.56,20.065C75.733,20.084 75.909,20.052 76.063,19.971C76.218,19.89 76.345,19.765 76.429,19.612C76.513,19.459 76.549,19.285 76.534,19.111C76.513,18.879 76.401,18.664 76.223,18.514C76.045,18.365 75.814,18.291 75.582,18.311Z" fill="#ffffff"/>
	<path d="M78.584,19.979C78.379,19.997 78.173,19.954 77.992,19.854C77.812,19.755 77.664,19.605 77.569,19.422C77.474,19.239 77.435,19.032 77.458,18.827C77.48,18.622 77.563,18.428 77.696,18.271C77.828,18.113 78.005,17.998 78.203,17.94C78.4,17.882 78.611,17.885 78.808,17.947C79.004,18.009 79.178,18.128 79.307,18.289C79.436,18.45 79.514,18.645 79.532,18.851C79.555,19.126 79.468,19.399 79.291,19.611C79.113,19.822 78.859,19.954 78.584,19.979ZM78.419,18.069C78.245,18.083 78.08,18.149 77.943,18.258C77.807,18.367 77.706,18.514 77.653,18.68C77.601,18.847 77.598,19.025 77.647,19.192C77.696,19.36 77.793,19.509 77.926,19.622C78.06,19.734 78.224,19.804 78.397,19.823C78.571,19.842 78.746,19.809 78.9,19.729C79.055,19.648 79.183,19.523 79.266,19.37C79.35,19.217 79.386,19.042 79.371,18.868C79.35,18.636 79.238,18.422 79.06,18.272C78.882,18.122 78.651,18.049 78.419,18.069Z" fill="#ffffff"/>
	<path d="M74.769,18.928C74.748,18.93 74.727,18.924 74.71,18.91C74.553,18.789 74.37,18.706 74.175,18.667C73.98,18.629 73.78,18.637 73.589,18.69C73.568,18.696 73.545,18.694 73.526,18.684C73.507,18.675 73.492,18.658 73.485,18.637C73.482,18.627 73.48,18.616 73.481,18.606C73.482,18.595 73.485,18.585 73.49,18.575C73.495,18.566 73.502,18.557 73.51,18.551C73.518,18.544 73.528,18.539 73.538,18.536C73.755,18.473 73.984,18.463 74.206,18.507C74.428,18.551 74.636,18.647 74.813,18.787C74.83,18.801 74.84,18.82 74.842,18.842C74.844,18.863 74.838,18.885 74.824,18.902C74.81,18.917 74.79,18.926 74.769,18.928Z" fill="#ffffff"/>
	<path d="M79.346,18.529C79.329,18.532 79.311,18.528 79.296,18.519C79.28,18.51 79.268,18.497 79.261,18.48C79.255,18.464 79.254,18.445 79.259,18.428C79.264,18.411 79.275,18.396 79.289,18.386C79.318,18.362 80.01,17.826 80.644,17.875C80.656,17.874 80.667,17.876 80.678,17.88C80.689,17.884 80.699,17.891 80.707,17.899C80.715,17.907 80.722,17.917 80.726,17.928C80.73,17.939 80.731,17.951 80.73,17.963C80.729,17.974 80.726,17.986 80.72,17.996C80.714,18.006 80.706,18.015 80.697,18.022C80.688,18.029 80.677,18.034 80.665,18.036C80.654,18.038 80.642,18.038 80.631,18.036C80.06,17.992 79.395,18.507 79.388,18.514C79.376,18.523 79.362,18.528 79.346,18.529Z" fill="#ffffff"/>
	<path d="M77.494,18.794C77.435,18.727 77.363,18.673 77.282,18.635C77.201,18.598 77.114,18.576 77.025,18.573C76.94,18.591 76.86,18.627 76.79,18.679C76.721,18.731 76.663,18.797 76.622,18.873L76.479,18.796C76.533,18.696 76.608,18.61 76.7,18.544C76.792,18.477 76.898,18.433 77.009,18.412C77.125,18.413 77.239,18.438 77.343,18.487C77.448,18.535 77.542,18.605 77.617,18.692L77.494,18.794Z" fill="#ffffff"/>
	<path d="M83.818,32.191L82.651,48.184C82.625,48.529 82.463,48.85 82.201,49.076C81.938,49.302 81.597,49.415 81.252,49.389L54.105,47.406C53.76,47.381 53.439,47.219 53.212,46.957C52.986,46.695 52.873,46.354 52.898,46.009L54.067,30.016C54.08,29.845 54.126,29.678 54.203,29.525C54.28,29.372 54.386,29.236 54.516,29.124C54.646,29.012 54.796,28.927 54.959,28.873C55.121,28.819 55.293,28.798 55.464,28.811L82.613,30.794C82.784,30.806 82.951,30.852 83.104,30.929C83.257,31.006 83.393,31.113 83.505,31.243C83.617,31.372 83.702,31.523 83.756,31.685C83.81,31.848 83.831,32.02 83.818,32.191Z" fill="#007CE6"/>
	<path d="M53.767,31.753L53.518,35.308L83.351,37.396L83.599,33.842L53.767,31.753Z" fill="#1D3062"/>
	<path d="M80.58,46.925L73.582,46.412L73.762,43.96L80.761,44.473L80.58,46.925Z" fill="#61B3FF"/>
	<path d="M55.101,38.429L55.029,39.458C55.023,39.544 55.088,39.619 55.175,39.625L57.142,39.763C57.228,39.769 57.303,39.704 57.309,39.617L57.381,38.588C57.387,38.502 57.322,38.427 57.236,38.421L55.269,38.283C55.182,38.277 55.107,38.342 55.101,38.429Z" fill="#61B3FF"/>
	<path d="M59.169,38.984L59.094,40.011C59.088,40.097 59.153,40.172 59.239,40.178L61.201,40.321C61.287,40.328 61.362,40.263 61.368,40.177L61.443,39.151C61.449,39.064 61.384,38.989 61.298,38.983L59.336,38.84C59.25,38.833 59.175,38.898 59.169,38.984Z" fill="#61B3FF"/>
	<path d="M63.183,39.282L63.107,40.308C63.101,40.394 63.166,40.469 63.252,40.475L65.214,40.619C65.3,40.625 65.375,40.561 65.381,40.474L65.456,39.448C65.463,39.362 65.398,39.287 65.312,39.281L63.35,39.137C63.264,39.131 63.189,39.195 63.183,39.282Z" fill="#61B3FF"/>
	<path d="M67.175,39.568L67.1,40.595C67.093,40.681 67.158,40.756 67.244,40.762L69.206,40.905C69.292,40.912 69.367,40.847 69.373,40.761L69.448,39.735C69.455,39.648 69.39,39.573 69.304,39.567L67.342,39.424C67.256,39.417 67.181,39.482 67.175,39.568Z" fill="#61B3FF"/>
	<path d="M71.18,39.86L71.105,40.887C71.098,40.973 71.163,41.048 71.249,41.054L73.211,41.197C73.297,41.204 73.372,41.139 73.379,41.053L73.453,40.027C73.46,39.94 73.395,39.865 73.309,39.859L71.347,39.716C71.261,39.709 71.186,39.774 71.18,39.86Z" fill="#61B3FF"/>
	<path d="M75.185,40.157L75.109,41.183C75.103,41.269 75.168,41.344 75.254,41.35L77.216,41.494C77.302,41.5 77.377,41.436 77.383,41.349L77.458,40.323C77.465,40.237 77.4,40.162 77.314,40.156L75.352,40.012C75.266,40.006 75.191,40.071 75.185,40.157Z" fill="#61B3FF"/>
	<path d="M79.187,40.449L79.112,41.475C79.106,41.561 79.171,41.636 79.257,41.643L81.219,41.786C81.305,41.792 81.38,41.728 81.386,41.641L81.461,40.615C81.467,40.529 81.403,40.454 81.317,40.448L79.355,40.304C79.269,40.298 79.194,40.363 79.187,40.449Z" fill="#61B3FF"/>
	<path d="M54.057,30.123L54.008,30.802L83.761,32.978L83.81,32.299L54.057,30.123Z" fill="#61B3FF"/>
	<path d="M58.473,41.628L55.483,41.41C55.203,41.389 54.959,41.6 54.939,41.88L54.72,44.871C54.7,45.152 54.91,45.395 55.191,45.416L58.181,45.634C58.461,45.655 58.705,45.444 58.725,45.164L58.944,42.173C58.964,41.893 58.754,41.649 58.473,41.628Z" fill="#61B3FF"/>
	<path d="M72.401,44.534L60.158,43.639C59.959,43.624 59.786,43.774 59.771,43.973L59.743,44.355C59.729,44.554 59.878,44.728 60.077,44.742L72.321,45.637C72.52,45.652 72.693,45.502 72.707,45.303L72.735,44.921C72.75,44.722 72.601,44.549 72.401,44.534Z" fill="#61B3FF"/>
	<path d="M72.89,30.082L53.285,47.027C53.152,46.894 53.049,46.735 52.983,46.558C52.917,46.382 52.891,46.194 52.904,46.007L53.307,40.397L65.841,29.566L72.89,30.082Z" strokeAlpha="0.2" fill="#ffffff" fillAlpha="0.2"/>
	<path d="M82.556,30.789L62.608,48.025L59.158,47.774L79.109,30.538L82.556,30.789Z" strokeAlpha="0.2" fill="#ffffff" fillAlpha="0.2"/>
	<path d="M64.178,47.501L63.826,47.91C63.826,47.91 62.815,47.838 62.724,47.415C62.701,47.344 62.701,47.268 62.724,47.197C62.747,47.126 62.792,47.064 62.852,47.02L64.178,47.501Z" fill="#FB876B"/>
	<path d="M64.542,49.772C64.299,49.807 64.052,49.765 63.834,49.653C63.617,49.541 63.439,49.364 63.326,49.147C63.256,49.005 63.215,48.851 63.206,48.693C63.196,48.535 63.217,48.377 63.268,48.228C63.61,47.095 64.242,46.298 64.68,46.533C64.846,46.621 64.813,47.291 64.588,47.776C64.796,47.422 64.957,47.042 65.066,46.646C65.222,46.04 65.971,46.333 65.782,47.097C65.592,47.862 65.506,47.979 65.506,47.979C65.688,47.683 65.823,47.36 65.905,47.022C65.954,46.646 66.546,46.749 66.416,47.485C66.357,47.827 66.284,48.217 66.284,48.217C66.284,48.217 66.456,47.732 66.546,47.481C66.636,47.23 66.987,47.071 67.035,47.624C67.075,48.065 67.101,49.239 66.518,49.433C65.867,49.59 65.207,49.704 64.542,49.772Z" fill="#FBA691"/>
	<path d="M74.648,49.017C74.624,48.622 75.481,48.646 75.899,48.413C76.318,48.179 77.3,47.402 77.115,47.201C76.913,47.019 76.691,46.86 76.454,46.727C76.267,46.604 76.126,46.238 76.331,46.194C76.536,46.15 77.199,46.447 77.468,46.657C77.605,46.797 77.735,46.944 77.857,47.097C78.024,47.297 78.26,47.425 78.518,47.457C78.739,47.223 78.99,46.959 79.148,46.831C79.499,46.853 80.69,47.686 80.417,48.373C80.178,48.688 79.922,48.989 79.648,49.274C77.994,50.779 77.023,50.704 76.622,50.698C76.504,50.688 76.394,50.64 76.307,50.56C76.22,50.48 76.163,50.373 76.144,50.257C76.042,50.235 75.951,50.179 75.884,50.099C75.817,50.02 75.778,49.92 75.774,49.817C75.205,49.671 75.287,49.288 75.287,49.288C75.287,49.288 74.674,49.411 74.648,49.017Z" fill="#FBA691"/>
	<path d="M86.865,41.437C85.68,44.426 83.484,46.903 80.659,48.437L79.014,46.983C79.014,46.983 82.349,44.352 83.878,40.436C83.889,40.408 83.902,40.377 83.913,40.346L83.893,40.211L82.206,29.24C82.206,29.24 82.358,27.98 83.851,26.199C83.851,26.199 87.528,32.07 86.865,41.437Z" fill="#61B3FF"/>
	<path d="M85.248,40.881C85.238,40.898 85.224,40.911 85.208,40.921C85.191,40.93 85.172,40.935 85.153,40.934C85.134,40.934 85.115,40.93 85.098,40.921C84.707,40.721 84.297,40.559 83.876,40.436C83.886,40.408 83.9,40.377 83.911,40.346L83.891,40.211C84.348,40.339 84.791,40.512 85.213,40.729C85.237,40.745 85.254,40.77 85.261,40.798C85.268,40.827 85.263,40.856 85.248,40.881Z" fill="#009EF3"/>
</svg>
