<?xml version="1.0" encoding="utf-8"?>
<!-- Generator: Adobe Illustrator 26.0.1, SVG Export Plug-In . SVG Version: 6.00 Build 0)  -->
<svg version="1.1" id="Layer_1" xmlns="http://www.w3.org/2000/svg" xmlns:xlink="http://www.w3.org/1999/xlink" x="0px" y="0px"
	 viewBox="0 0 16 16" style="enable-background:new 0 0 16 16;" xml:space="preserve">
<style type="text/css">
	.st0{fill-rule:evenodd;clip-rule:evenodd;fill:#ECF0F1;}
</style>
<path id="profile_close_2" class="st0" d="M15.9,13.3c-0.8-2.1-2.4-3.8-4.4-4.6c1.1-0.9,1.8-2.3,1.8-3.7c0-2.6-2-4.7-4.6-5
	C8.2,0,7.8,0,7.4,0C4.8,0.3,2.8,2.4,2.8,5c0,1.4,0.7,2.8,1.8,3.7c-2.1,0.9-3.7,2.5-4.4,4.6C-0.1,14,0,14.6,0.4,15.2
	c0.4,0.5,1,0.8,1.7,0.8h11.8c0.7,0,1.3-0.3,1.7-0.8C16,14.6,16.1,14,15.9,13.3z M4.8,5c0-1.6,1.2-2.9,2.8-3c0.2,0,0.4,0,0.6,0
	c1.6,0.3,2.8,1.8,2.5,3.4C10.6,7.1,9,8.2,7.4,8C5.9,7.7,4.8,6.5,4.8,5z M2.1,14c1.3-3.3,5-4.9,8.3-3.5c1.6,0.6,2.9,1.9,3.5,3.5H2.1
	L2.1,14z"/>
</svg>
